
default 0
timeout @TIMEOUT@

title 	OpenWrt
root	(hd0)
kernel	/boot/vmlinuz @CMDLINE@ xencons=hvc noinitrd

title 	OpenWrt-failsafe
root	(hd0)
kernel	/boot/vmlinuz @CMDLINE@ xencons=hvc noinitrd failsafe=true

