
/pci@i0cf8/usb@16/hub@1/usb-*@1
/pci@i0cf8/usb@16/hub@1/usb-*@2
/pci@i0cf8/pci-bridge@3/usb@0/usb-*@1
/pci@i0cf8/pci-bridge@3/usb@0/usb-*@2
/pci@i0cf8/pci-bridge@3/usb@0/usb-*@3
/pci@i0cf8/pci-bridge@3/usb@0/usb-*@4
/pci@i0cf8/usb@16/hub@1/usb-*@4
!/pci@i0cf8/*@14
!/pci@i0cf8/*@14,1
!/pci@i0cf8/*@14,2
!/pci@i0cf8/*@14,3
!/pci@i0cf8/*@17/drive@0/disk@0
