
Intel ACPI Component Architecture
ASL Optimizing Compiler version 20121114-64 [Jul  9 2013]
Copyright (c) 2000 - 2012 Intel Corporation

Compilation of "out/src/fw/ssdt-pcihp.dsl.i" - Thu Jan 12 14:19:42 2017

       1....
       2..../* ACPI_EXTRACT_ALL_CODE ssdp_pcihp_aml */
       3....
       4....DefinitionBlock ("ssdt-pcihp.aml", "SSDT", 0x01, "BXPC", "BXSSDTPCIHP", 0x1)

00000000....53 53 44 54 57 00 00 00     "SSDTW..."
00000008....01 25 42 58 50 43 00 00     ".%BXPC.."
00000010....42 58 53 53 44 54 50 43     "BXSSDTPC"
00000018....01 00 00 00 49 4E 54 4C     "....INTL"
00000020....14 11 12 20 ............    "... "

       5....{
       6....    External(\_SB.PCI0, DeviceObj)
       7....    External(\_SB.PCI0.PCEJ, MethodObj)
       8....    Scope(\_SB.PCI0) {

00000024....10 32 5C 2E 5F 53 42 5F     ".2\._SB_"
0000002C....50 43 49 30 ............    "PCI0"

       9....        
      10..../* ACPI_EXTRACT_DEVICE_START ssdt_pcihp_start */
      11....
      12....        
      13..../* ACPI_EXTRACT_DEVICE_END ssdt_pcihp_end */
      14....
      15....        
      16..../* ACPI_EXTRACT_DEVICE_STRING ssdt_pcihp_name */
      17....
      18....        Device(SAA) {

00000030....5B 82 25 53 41 41 5F ...    "[.%SAA_"

      19....            
      20..../* ACPI_EXTRACT_NAME_BYTE_CONST ssdt_pcihp_id */
      21....
      22....            Name(_SUN, 0xAA)

00000037....08 5F 53 55 4E 0A AA ...    "._SUN.."

      23....            
      24..../* ACPI_EXTRACT_NAME_DWORD_CONST ssdt_pcihp_adr */
      25....
      26....            Name(_ADR, 0xAA0000)

0000003E....08 5F 41 44 52 0C 00 00     "._ADR..."
00000046....AA 00 ..................    ".."

      27....            
      28..../* ACPI_EXTRACT_METHOD_STRING ssdt_pcihp_ej0 */
      29....
      30....            Method(_EJ0, 1) {

00000048....14 0E 5F 45 4A 30 01 ...    ".._EJ0."

      31....                PCEJ(_SUN)

0000004F....50 43 45 4A 5F 53 55 4E     "PCEJ_SUN"
      32....            }
      33....        }
      34....    }
      35....}
      36....


Summary of errors and warnings


ASL Optimizing Compiler version 20121114-64 [Jul  9 2013]

ASL Input:     out/src/fw/ssdt-pcihp.dsl.i - 36 lines, 758 bytes, 5 keywords
AML Output:    out/src/fw/ssdt-pcihp.aml - 87 bytes, 5 named objects, 0 executable opcodes
Listing File:  out/src/fw/ssdt-pcihp.lst - 2323 bytes
Hex Dump:      out/src/fw/ssdt-pcihp.hex - 235 bytes

Compilation complete. 0 Errors, 0 Warnings, 0 Remarks, 0 Optimizations

